Entrega grupo 7
…
siglas <- siglas |>  
  select(denominacion, siglas) |>  
  distinct()

Siglas

Se procede a añadir las siglas de los partidos a la tabla de datos_encuestas.

# A tibble: 121 × 2
   partido_politico                                                       siglas
   <chr>                                                                  <chr> 
 1 ALTERNATIVA MOTOR Y DEPORTE                                            <NA>  
 2 BIDEZKO MUNDURANTZ-POR UN MUNDO MÁS JUSTO                              <NA>  
 3 BIDEZKO MUNDURANTZ/POR UN MUNDO MAS JUSTO                              <NA>  
 4 CHUNTA ARAGONESISTA-IZQUIERDA UNIDA, La Izquierda de Aragón: La Izqui… <NA>  
 5 CIUDADANOS PARTIDO DE LA CIUDADANIA                                    <NA>  
 6 CIUDADANOS PARTIDO DE LA CIUDADANÍA                                    <NA>  
 7 CIUDADANOS, PARTIDO DE LA CIUDADANÍA                                   <NA>  
 8 CIUDADANOS-PARTIDO DE LA CIUDADANÍA (C's)                              <NA>  
 9 CIUTADANS - PARTIDO DE LA CIUDADANÍA                                   <NA>  
10 CIUTADANS, PARTIDO DE LA CIUDADANÍA                                    <NA>  
# ℹ 111 more rows
…
Partido ganador por elección

Bajamos ahora a nivel municipio para ver el primer y segundo partido más votado.

No excluímos a ningún municipio en función del censo.

Visualmente.

Se aprecia que cuando el PP queda en primer lugar el partido que más veces está en segundo puesto es el PSOE. Y viceversa.

## # A tibble: 98,595 × 4
##    fecha   cod_mun   siglas votos
##    <ord>   <glue>    <fct>  <dbl>
##  1 2008-03 01-04-001 PSOE     512
##  2 2008-03 01-04-001 PP       382
##  3 2008-03 01-04-002 PSOE     532
##  4 2008-03 01-04-002 PP       340
##  5 2008-03 01-04-003 PP      7632
##  6 2008-03 01-04-003 PSOE    4261
##  7 2008-03 01-04-004 PSOE     269
##  8 2008-03 01-04-004 PP       106
##  9 2008-03 01-04-005 PSOE     236
## 10 2008-03 01-04-005 PP       191
## # ℹ 98,585 more rows
…
