Entrega grupo 7
…
Partido ganador por elección

El partido ganador en las elecciones del 2008 es el PSOE, luego el PP es el ganador entre los años 2011 y 2016, y finalmente, el PSOE vuelve a ser el partido ganador en las dos elecciones del 2019. Esto muestra indicios de una marcada tendencia bipartidista, en el período estudiado en España.



Tendencias bipartidistas

Para revisar esta tendencia bipartidista, se incluyeron los datos de todos los municipios, y la tendencia vuelve a repetirse, cuando el PSOE es el partido ganador, el segundo es el PP, y viceversa.

# A tibble: 98,595 × 4
   fecha   cod_mun   siglas votos
   <glue>  <glue>    <fct>  <dbl>
 1 2008-03 01-04-001 PSOE     512
 2 2008-03 01-04-001 PP       382
 3 2008-03 01-04-002 PSOE     532
 4 2008-03 01-04-002 PP       340
 5 2008-03 01-04-003 PP      7632
 6 2008-03 01-04-003 PSOE    4261
 7 2008-03 01-04-004 PSOE     269
 8 2008-03 01-04-004 PP       106
 9 2008-03 01-04-005 PSOE     236
10 2008-03 01-04-005 PP       191
# ℹ 98,585 more rows
…
# A tibble: 110 × 6
   censo_quantile siglas_ganador     n p_participacion p_participacion_1
            <int> <fct>          <int>           <dbl>             <dbl>
 1              8 PSOE            1995           0.748             0.388
 2             10 PNV              132           0.693             0.396
 3              7 PNV              143           0.684             0.384
 4              8 PNV               97           0.705             0.398
 5              3 PP              3063           0.774             0.414
 6              6 PNV              107           0.692             0.400
 7              4 PP              2877           0.769             0.417
 8              5 PP              2516           0.765             0.414
 9              3 PNV               34           0.645             0.364
10              5 PNV               94           0.697             0.391
# ℹ 100 more rows
# ℹ 1 more variable: p_participacion_2 <dbl>
…
