Entrega grupo 7
…
siglas <- siglas |>  
  select(denominacion, siglas) |>  
  distinct()

Siglas

Se procede a añadir las siglas de los partidos a la tabla de datos_encuestas.

# A tibble: 121 × 2
   partido_politico                                                       siglas
   <chr>                                                                  <chr> 
 1 ALTERNATIVA MOTOR Y DEPORTE                                            <NA>  
 2 BIDEZKO MUNDURANTZ-POR UN MUNDO MÁS JUSTO                              <NA>  
 3 BIDEZKO MUNDURANTZ/POR UN MUNDO MAS JUSTO                              <NA>  
 4 CHUNTA ARAGONESISTA-IZQUIERDA UNIDA, La Izquierda de Aragón: La Izqui… <NA>  
 5 CIUDADANOS PARTIDO DE LA CIUDADANIA                                    <NA>  
 6 CIUDADANOS PARTIDO DE LA CIUDADANÍA                                    <NA>  
 7 CIUDADANOS, PARTIDO DE LA CIUDADANÍA                                   <NA>  
 8 CIUDADANOS-PARTIDO DE LA CIUDADANÍA (C's)                              <NA>  
 9 CIUTADANS - PARTIDO DE LA CIUDADANÍA                                   <NA>  
10 CIUTADANS, PARTIDO DE LA CIUDADANÍA                                    <NA>  
# ℹ 111 more rows
…
Partido ganador por elección

Bajamos ahora a nivel municipio para ver el primer y segundo partido más votado y no excluímos a ningún municipio en función del censo.

Visualmente se aprecia que cuando el PP queda en primer lugar el partido que más veces está en segundo puesto es el PSOE. Y viceversa. Cuando el PSOE ocupa la primera posición en votos el partido que más veces está tras él es el PP. PARA DIANA: si ponemos viceversa la última frase se puede quitar.

## # A tibble: 98,595 × 4
##    fecha   cod_mun   siglas votos
##    <ord>   <glue>    <fct>  <dbl>
##  1 2008-03 01-04-001 PSOE     512
##  2 2008-03 01-04-001 PP       382
##  3 2008-03 01-04-002 PSOE     532
##  4 2008-03 01-04-002 PP       340
##  5 2008-03 01-04-003 PP      7632
##  6 2008-03 01-04-003 PSOE    4261
##  7 2008-03 01-04-004 PSOE     269
##  8 2008-03 01-04-004 PP       106
##  9 2008-03 01-04-005 PSOE     236
## 10 2008-03 01-04-005 PP       191
## # ℹ 98,585 more rows
…
Nivel de participación y favorecidos

# A tibble: 110 × 6
   censo_quantile siglas_ganador     n p_participacion p_participacion_1
            <int> <fct>          <int>           <dbl>             <dbl>
 1              8 PSOE            1995           0.748             0.388
 2             10 PNV              132           0.693             0.396
 3              7 PNV              143           0.684             0.384
 4              8 PNV               97           0.705             0.398
 5              3 PP              3063           0.774             0.414
 6              6 PNV              107           0.692             0.400
 7              4 PP              2877           0.769             0.417
 8              5 PP              2516           0.765             0.414
 9              3 PNV               34           0.645             0.364
10              5 PNV               94           0.697             0.391
# ℹ 100 more rows
# ℹ 1 more variable: p_participacion_2 <dbl>
…
# A tibble: 110 × 6
   censo_quantile siglas_ganador     n p_participacion p_participacion_1
            <int> <fct>          <int>           <dbl>             <dbl>
 1              8 PSOE            1995           0.748             0.388
 2             10 PNV              132           0.693             0.396
 3              7 PNV              143           0.684             0.384
 4              8 PNV               97           0.705             0.398
 5              3 PP              3063           0.774             0.414
 6              6 PNV              107           0.692             0.400
 7              4 PP              2877           0.769             0.417
 8              5 PP              2516           0.765             0.414
 9              3 PNV               34           0.645             0.364
10              5 PNV               94           0.697             0.391
# ℹ 100 more rows
# ℹ 1 more variable: p_participacion_2 <dbl>
…
